﻿[
  {
    "Prefix": "TE",
    "Suffix": "GB",
    "Product": "International Parcels",
    "SubProduct": "Inward Transit Express",
    "Signature": 0,
    "Neighbour": 0,
    "Neighbour_Signature": 0,
    "Safeplace": 0
  },
  {
    "Prefix": "TR",
    "Suffix": "GB",
    "Product": "International Parcels",
    "SubProduct": "Inward Transit Registered/ Ins.",
    "Signature": 0,
    "Neighbour": 0,
    "Neighbour_Signature": 0,
    "Safeplace": 0
  },
  {
    "Prefix": "DB",
    "Suffix": "GB",
    "Product": "International Signed",
    "SubProduct": "Training Unsigned",
    "Signature": 0,
    "Neighbour": 0,
    "Neighbour_Signature": 0,
    "Safeplace": 0
  },
  {
    "Prefix": "MP",
    "Suffix": "GB",
    "Product": "International Signed",
    "SubProduct": "Training Signed",
    "Signature": 0,
    "Neighbour": 0,
    "Neighbour_Signature": 0,
    "Safeplace": 0
  },
  {
    "Prefix": "UB",
    "Suffix": "GB",
    "Product": "International Standard",
    "SubProduct": "International Non Tracked Electronic Customs",
    "Signature": 0,
    "Neighbour": 0,
    "Neighbour_Signature": 0,
    "Safeplace": 0
  },
  {
    "Prefix": "UG",
    "Suffix": "GB",
    "Product": "International Standard",
    "SubProduct": "International Non Tracked Electronic Customs",
    "Signature": 0,
    "Neighbour": 0,
    "Neighbour_Signature": 0,
    "Safeplace": 0
  },
  {
    "Prefix": "UH",
    "Suffix": "GB",
    "Product": "International Standard",
    "SubProduct": "International Non Tracked Electronic Customs",
    "Signature": 0,
    "Neighbour": 0,
    "Neighbour_Signature": 0,
    "Safeplace": 0
  },
  {
    "Prefix": "LC",
    "Suffix": "GB",
    "Product": "Royal Mail Parcels",
    "SubProduct": "Local Collect",
    "Signature": 0,
    "Neighbour": 0,
    "Neighbour_Signature": 0,
    "Safeplace": 0
  },
  {
    "Prefix": "CT",
    "Suffix": "GB",
    "Product": "Special Delivery Guaranteed 1pm",
    "SubProduct": "Business Mail Secure",
    "Signature": 0,
    "Neighbour": 0,
    "Neighbour_Signature": 0,
    "Safeplace": 0
  },
  {
    "Prefix": "AV",
    "Suffix": "GB",
    "Product": "Amazon Delivered Scanned 24",
    "SubProduct": "Doorstep Scan RM24 Parcels",
    "Signature": 0,
    "Neighbour": 1,
    "Neighbour_Signature": 0,
    "Safeplace": 0
  },
  {
    "Prefix": "AW",
    "Suffix": "GB",
    "Product": "Amazon Delivered Scanned 24",
    "SubProduct": "Doorstep Scan RM24 Large Letters",
    "Signature": 0,
    "Neighbour": 1,
    "Neighbour_Signature": 0,
    "Safeplace": 0
  },
  {
    "Prefix": "TY",
    "Suffix": "GB",
    "Product": "Amazon Delivered Scanned 24",
    "SubProduct": "Doorstep Scan RM24 Large Letters",
    "Signature": 0,
    "Neighbour": 1,
    "Neighbour_Signature": 0,
    "Safeplace": 0
  },
  {
    "Prefix": "AX",
    "Suffix": "GB",
    "Product": "Amazon Delivered Scanned 48",
    "SubProduct": "Doorstep Scan RM48 Parcels",
    "Signature": 0,
    "Neighbour": 1,
    "Neighbour_Signature": 0,
    "Safeplace": 0
  },
  {
    "Prefix": "AY",
    "Suffix": "GB",
    "Product": "Amazon Delivered Scanned 48",
    "SubProduct": "Doorstep Scan RM48 Large Letters",
    "Signature": 0,
    "Neighbour": 1,
    "Neighbour_Signature": 0,
    "Safeplace": 0
  },
  {
    "Prefix": "VP",
    "Suffix": "GB",
    "Product": "Amazon Delivered Scanned 48",
    "SubProduct": "Doorstep Scan RM48 Parcels",
    "Signature": 0,
    "Neighbour": 1,
    "Neighbour_Signature": 0,
    "Safeplace": 0
  },
  {
    "Prefix": "VQ",
    "Suffix": "GB",
    "Product": "Amazon Delivered Scanned 48",
    "SubProduct": "Doorstep Scan RM48 Large Letters",
    "Signature": 0,
    "Neighbour": 1,
    "Neighbour_Signature": 0,
    "Safeplace": 0
  },
  {
    "Prefix": "ET",
    "Suffix": "GB",
    "Product": "Royal Mail Tracked 24",
    "SubProduct": "RM Tracked Nxt Day Non Signature",
    "Signature": 0,
    "Neighbour": 1,
    "Neighbour_Signature": 0,
    "Safeplace": 1
  },
  {
    "Prefix": "FQ",
    "Suffix": "GB",
    "Product": "Royal Mail Tracked 24",
    "SubProduct": "RM Tracked 24 Non Signature",
    "Signature": 0,
    "Neighbour": 1,
    "Neighbour_Signature": 0,
    "Safeplace": 1
  },
  {
    "Prefix": "FR",
    "Suffix": "GB",
    "Product": "Royal Mail Tracked 24",
    "SubProduct": "RM Tracked 24 Non Signature",
    "Signature": 0,
    "Neighbour": 1,
    "Neighbour_Signature": 0,
    "Safeplace": 1
  },
  {
    "Prefix": "FY",
    "Suffix": "GB",
    "Product": "Royal Mail Tracked 24",
    "SubProduct": "RM Tracked 24 High Volume non-signature",
    "Signature": 0,
    "Neighbour": 1,
    "Neighbour_Signature": 0,
    "Safeplace": 1
  },
  {
    "Prefix": "HY",
    "Suffix": "GB",
    "Product": "Royal Mail Tracked 24",
    "SubProduct": "Royal Mail Tracked 24 (LBT) (HV) Non Signature",
    "Signature": 0,
    "Neighbour": 1,
    "Neighbour_Signature": 0,
    "Safeplace": 1
  },
  {
    "Prefix": "JG",
    "Suffix": "GB",
    "Product": "Royal Mail Tracked 24",
    "SubProduct": "RM Tracked Next Day Non Signature RDC",
    "Signature": 0,
    "Neighbour": 1,
    "Neighbour_Signature": 0,
    "Safeplace": 1
  },
  {
    "Prefix": "JQ",
    "Suffix": "GB",
    "Product": "Royal Mail Tracked 24",
    "SubProduct": "Royal Mail Tracked 24 (LBT) (HV) Non Signature",
    "Signature": 0,
    "Neighbour": 1,
    "Neighbour_Signature": 0,
    "Safeplace": 1
  },
  {
    "Prefix": "JU",
    "Suffix": "GB",
    "Product": "Royal Mail Tracked 24",
    "SubProduct": "Royal Mail Tracked 24 Non Signature",
    "Signature": 0,
    "Neighbour": 1,
    "Neighbour_Signature": 0,
    "Safeplace": 1
  },
  {
    "Prefix": "RH",
    "Suffix": "GB",
    "Product": "International Signed",
    "SubProduct": "International Signed",
    "Signature": 1,
    "Neighbour": 0,
    "Neighbour_Signature": 0,
    "Safeplace": 0
  },
  {
    "Prefix": "RI",
    "Suffix": "GB",
    "Product": "International Signed",
    "SubProduct": "International Signed For",
    "Signature": 1,
    "Neighbour": 0,
    "Neighbour_Signature": 0,
    "Safeplace": 0
  },
  {
    "Prefix": "UJ",
    "Suffix": "GB",
    "Product": "International Standard",
    "SubProduct": "International subject to Customs Control",
    "Signature": 1,
    "Neighbour": 0,
    "Neighbour_Signature": 0,
    "Safeplace": 0
  },
  {
    "Prefix": "CA",
    "Suffix": "GB",
    "Product": "Parcelforce",
    "SubProduct": "International Parcel",
    "Signature": 1,
    "Neighbour": 0,
    "Neighbour_Signature": 0,
    "Safeplace": 0
  },
  {
    "Prefix": "PK",
    "Suffix": "GB",
    "Product": "Special Delivery Guaranteed 1pm",
    "SubProduct": "Registered Plus",
    "Signature": 1,
    "Neighbour": 0,
    "Neighbour_Signature": 0,
    "Safeplace": 0
  },
  {
    "Prefix": "CU",
    "Suffix": "GB",
    "Product": "Parcelforce",
    "SubProduct": "Parcelforce only",
    "Signature": 1,
    "Neighbour": 0,
    "Neighbour_Signature": 1,
    "Safeplace": 0
  },
  {
    "Prefix": "GP",
    "Suffix": "GB",
    "Product": "Parcelforce",
    "SubProduct": "PF24",
    "Signature": 1,
    "Neighbour": 0,
    "Neighbour_Signature": 1,
    "Safeplace": 0
  },
  {
    "Prefix": "PE",
    "Suffix": "GB",
    "Product": "Parcelforce",
    "SubProduct": "PMS Converted - Express",
    "Signature": 1,
    "Neighbour": 0,
    "Neighbour_Signature": 1,
    "Safeplace": 0
  },
  {
    "Prefix": "AI",
    "Suffix": "GB",
    "Product": "Royal Mail Signed For",
    "SubProduct": "Signed For",
    "Signature": 1,
    "Neighbour": 1,
    "Neighbour_Signature": 1,
    "Safeplace": 0
  },
  {
    "Prefix": "BV",
    "Suffix": "GB",
    "Product": "Royal Mail Signed For",
    "SubProduct": "BSS Signed For",
    "Signature": 1,
    "Neighbour": 1,
    "Neighbour_Signature": 1,
    "Safeplace": 0
  },
  {
    "Prefix": "MV",
    "Suffix": "GB",
    "Product": "Royal Mail Tracked 24",
    "SubProduct": "TRACKED 24 ONLINE- SIGNED FOR",
    "Signature": 1,
    "Neighbour": 1,
    "Neighbour_Signature": 1,
    "Safeplace": 0
  },
  {
    "Prefix": "QB",
    "Suffix": "GB",
    "Product": "Royal Mail Tracked 24",
    "SubProduct": "Royal Mail Tracked 24 (LBT) (HV) With Signature",
    "Signature": 1,
    "Neighbour": 1,
    "Neighbour_Signature": 1,
    "Safeplace": 0
  },
  {
    "Prefix": "QD",
    "Suffix": "GB",
    "Product": "Royal Mail Tracked 24",
    "SubProduct": "Royal Mail Tracked 24 (LBT) With Signature",
    "Signature": 1,
    "Neighbour": 1,
    "Neighbour_Signature": 1,
    "Safeplace": 0
  },
  {
    "Prefix": "QJ",
    "Suffix": "GB",
    "Product": "Royal Mail Tracked 24",
    "SubProduct": "Royal Mail Tracked 24 With Signature",
    "Signature": 1,
    "Neighbour": 1,
    "Neighbour_Signature": 1,
    "Safeplace": 0
  },
  {
    "Prefix": "QL",
    "Suffix": "GB",
    "Product": "Royal Mail Tracked 24",
    "SubProduct": "Royal Mail Tracked 24 (LBT) With Signature",
    "Signature": 1,
    "Neighbour": 1,
    "Neighbour_Signature": 1,
    "Safeplace": 0
  },
  {
    "Prefix": "YW",
    "Suffix": "GB",
    "Product": "Royal Mail Tracked 48",
    "SubProduct": "TRACKED 48 ONLINE - SIGNED FOR",
    "Signature": 1,
    "Neighbour": 1,
    "Neighbour_Signature": 1,
    "Safeplace": 0
  },
  {
    "Prefix": "VW",
    "Suffix": "GB",
    "Product": "Parcelforce",
    "SubProduct": "Express by 09.00 Weekday delivery",
    "Signature": 1,
    "Neighbour": 1,
    "Neighbour_Signature": 1,
    "Safeplace": 1
  },
  {
    "Prefix": "XS",
    "Suffix": "GB",
    "Product": "Parcelforce",
    "SubProduct": "Express by 10.00 Saturday delivery",
    "Signature": 1,
    "Neighbour": 1,
    "Neighbour_Signature": 1,
    "Safeplace": 1
  },
  {
    "Prefix": "XW",
    "Suffix": "GB",
    "Product": "Parcelforce",
    "SubProduct": "Express by 10.00 Weekday delivery",
    "Signature": 1,
    "Neighbour": 1,
    "Neighbour_Signature": 1,
    "Safeplace": 1
  },
  {
    "Prefix": "GQ",
    "Suffix": "GB",
    "Product": "Royal Mail Signed For",
    "SubProduct": "Signed For",
    "Signature": 1,
    "Neighbour": 1,
    "Neighbour_Signature": 1,
    "Safeplace": 1
  },
  {
    "Prefix": "NJ",
    "Suffix": "GB",
    "Product": "Royal Mail Signed For",
    "SubProduct": "Royal Mail Signed For",
    "Signature": 1,
    "Neighbour": 1,
    "Neighbour_Signature": 1,
    "Safeplace": 1
  }
]